{
  "Main": {
    "uid": {
      "type": "UID",
      "config": {
        "label": "uid"
      }
    },
    "title": {
      "type": "StructuredText",
      "config": {
        "single": "heading1, heading2, heading3, heading4, heading5, heading6",
        "label": "title"
      }
    },
    "seo_blog_description": {
      "type": "Text",
      "config": {
        "label": "seo blog description",
        "placeholder": "| Josselin CAER"
      }
    },
    "body": {
      "type": "Slices",
      "fieldset": "Slice zone",
      "config": {
        "labels": {
          "quote": [],
          "content": [],
          "image": []
        },
        "choices": {
          "quote": {
            "type": "Slice",
            "fieldset": "quote",
            "description": "citation",
            "icon": "format_quote",
            "display": "grid",
            "non-repeat": {},
            "repeat": {}
          },
          "content": {
            "type": "Slice",
            "fieldset": "content",
            "description": "text blog content",
            "icon": "border_color",
            "display": "list",
            "non-repeat": {
              "richtext": {
                "type": "StructuredText",
                "config": {
                  "multi": "paragraph, preformatted, heading1, heading2, heading3, heading4, heading5, heading6, strong, em, hyperlink, image, embed, list-item, o-list-item, rtl",
                  "allowTargetBlank": true,
                  "label": "richtext"
                }
              }
            },
            "repeat": {}
          },
          "image": {
            "type": "Slice",
            "fieldset": "Image",
            "description": "image slice",
            "icon": "add_a_photo",
            "display": "grid",
            "non-repeat": {
              "image": {
                "type": "Image",
                "config": {
                  "constraint": {},
                  "thumbnails": [],
                  "label": "image"
                }
              },
              "alt": {
                "type": "Text",
                "config": {
                  "label": "alt"
                }
              }
            },
            "repeat": {}
          }
        }
      }
    }
  }
}
